{
    "name": "Form",
    "alias": "form",
    "description": "",
    "keywords": [],
    "order": 0,
    "providers": [
        "Modules\\Form\\Providers\\FormServiceProvider"
    ],
    "aliases": {},
    "files": [],
    "requires": []
}
