{
    "name": "FeesCollection",
    "alias": "feescollection",
    "description": "",
    "keywords": [],
    "order": 0,
    "providers": [
        "Modules\\FeesCollection\\Providers\\FeesCollectionServiceProvider"
    ],
    "aliases": {},
    "files": [],
    "requires": []
}
