{
    "InfixBiometrics": false,
    "FeesCollection": true,
    "ResultReports": false,
    "TemplateSettings": true,
    "RolePermission": true,
    "RazorPay": false,
    "Saas": false,
    "Form": true,
    "Zoom": true,
    "ParentRegistration": false,
    "SaasSubscription": false,
    "Inventory": false,
    "Schedule": true,
    "CRM": true,
    "Docs": true,
    "ChatBox": true,
    "Devices": true,
    "PayRoll": true,
    "Medical": true,
    "Library": true,
    "StudyInformation": true
}